{
    "KPlugin": {
        "Authors": [
            {
                "Email": "plasma-devel@kde.org",
                "Name": "Plasma Team",
                "Name[ar]": "فريق بلازما",
                "Name[az]": "Plasma komandası",
                "Name[be]": "Каманда Plasma",
                "Name[bg]": "Екипът на Plasma",
                "Name[ca@valencia]": "L'equip de Plasma",
                "Name[ca]": "L'equip del Plasma",
                "Name[cs]": "Team Plasma",
                "Name[de]": "Das Plasma-Team",
                "Name[en_GB]": "Plasma Team",
                "Name[es]": "Equipo de Plasma",
                "Name[et]": "Plasma meeskond",
                "Name[eu]": "Plasma taldea",
                "Name[fi]": "Plasma-työryhmä",
                "Name[fr]": "Équipe de Plasma",
                "Name[hu]": "A Plasma fejlesztői",
                "Name[ia]": "Equipa de Plasma",
                "Name[id]": "Tim Plasma",
                "Name[is]": "Plasma-þróunarhópurinn",
                "Name[it]": "La squadra di Plasma",
                "Name[ja]": "Plasma チーム",
                "Name[ka]": "Plasma-ის გუნდი",
                "Name[ko]": "Plasma 팀",
                "Name[lt]": "Plasma komanda",
                "Name[nl]": "Team van Plasma",
                "Name[nn]": "Utviklingslaget for Plasma",
                "Name[pa]": "ਪਲਾਜ਼ਮਾ ਟੀਮ",
                "Name[pl]": "Zespół Plazmy",
                "Name[pt]": "Equipa do Plasma",
                "Name[pt_BR]": "Temas do Plasma",
                "Name[ro]": "Echipa Plasma",
                "Name[ru]": "Команда разработчиков Plasma",
                "Name[sk]": "Plasma Tím",
                "Name[sl]": "Ekipa Plasme",
                "Name[sv]": "Plasma-gruppen",
                "Name[ta]": "பிளாஸ்மா குழு",
                "Name[tr]": "Plasma Takımı",
                "Name[uk]": "Команда розробників Плазми",
                "Name[vi]": "Đội Plasma",
                "Name[x-test]": "xxPlasma Teamxx",
                "Name[zh_CN]": "Plasma 开发团队",
                "Name[zh_TW]": "Plasma 團隊"
            }
        ],
        "Description": "Executes shell commands",
        "Description[ar]": "نفّذ أوامر الصَدفة",
        "Description[az]": "İcra proqramının başladılması",
        "Description[be]": "Выкананне загадаў абалонкі",
        "Description[bg]": "Изпълнява команди на обвивката",
        "Description[ca@valencia]": "Executa ordres de l'intèrpret d'ordres",
        "Description[ca]": "Executa ordres de l'intèrpret d'ordres",
        "Description[cs]": "Spouští shellové příkazy",
        "Description[da]": "Kører skal-kommandoer",
        "Description[de]": "Führt Shell-Befehle aus",
        "Description[en_GB]": "Executes shell commands",
        "Description[es]": "Ejecuta órdenes de la consola",
        "Description[et]": "Shellikäskude käivitamine",
        "Description[eu]": "Oskoleko («shell») komandoak exekutatzen ditu",
        "Description[fi]": "Suorittaa komentorivikomentoja",
        "Description[fr]": "Exécute des commandes du shell",
        "Description[hu]": "Parancsokat hajt végre terminálban",
        "Description[ia]": "Il exeque commandos de shell",
        "Description[id]": "Eksekusi perintah shell",
        "Description[is]": "Framkvæmir skeljarskipanir",
        "Description[it]": "Esegue dei comandi della shell",
        "Description[ja]": "シェルコマンドを実行します",
        "Description[ka]": "გარსის ბრძანებების შესრულება",
        "Description[ko]": "셸 명령 실행",
        "Description[lt]": "Vykdo apvalkalo komandas",
        "Description[nl]": "Voert shellcommando's uit",
        "Description[nn]": "Køyr skalkommandoar",
        "Description[pa]": "ਚੱਲਣਯੋਗ ਸ਼ੈੱਲ ਕਮਾਂਡਾਂ",
        "Description[pl]": "Wykonuje polecenia powłoki",
        "Description[pt]": "Executa comandos da consola",
        "Description[pt_BR]": "Executa comandos do shell",
        "Description[ro]": "Execută comenzi de consolă",
        "Description[ru]": "Запуск исполняемых программ",
        "Description[sk]": "Vykonanie príkazov shellu",
        "Description[sl]": "Izvede lupinske ukaze",
        "Description[sv]": "Kör skalkommandon",
        "Description[ta]": "முனைய கட்டளைகளை இயக்கும்",
        "Description[tr]": "Kabuk komutlarını çalıştırır",
        "Description[uk]": "Виконує команди оболонки",
        "Description[vi]": "Thực hiện các lệnh vỏ",
        "Description[x-test]": "xxExecutes shell commandsxx",
        "Description[zh_CN]": "执行 Shell 命令",
        "EnabledByDefault": true,
        "Icon": "system-run",
        "Id": "shell",
        "License": "LGPL",
        "Name": "Command Line",
        "Name[ar]": "سطر الأوامر",
        "Name[az]": "Əmr Sətiri",
        "Name[be@latin]": "Zahadny radok",
        "Name[be]": "Загадны радок",
        "Name[bg]": "Команден ред",
        "Name[bn]": "কমান্ড লাইন",
        "Name[bn_IN]": "কমান্ড-লাইন",
        "Name[bs]": "Komandna linija",
        "Name[ca@valencia]": "Línia d'ordres",
        "Name[ca]": "Línia d'ordres",
        "Name[cs]": "Příkazový řádek",
        "Name[csb]": "Réga pòlétu",
        "Name[da]": "Kommandolinje",
        "Name[de]": "Befehlszeile",
        "Name[el]": "Γραμμή εντολών",
        "Name[en_GB]": "Command Line",
        "Name[eo]": "Komandlinio",
        "Name[es]": "Ejecución de órdenes",
        "Name[et]": "Käsurida",
        "Name[eu]": "Komando-lerroa",
        "Name[fi]": "Komentorivi",
        "Name[fr]": "Ligne de commandes",
        "Name[fy]": "Kommandorigel",
        "Name[ga]": "Líne na nOrduithe",
        "Name[gl]": "Execución de ordes",
        "Name[gu]": "આદેશ જગ્યા",
        "Name[he]": "שורת הפקודה",
        "Name[hi]": "कमांड लाइन",
        "Name[hne]": "कमांड लाइन",
        "Name[hr]": "Naredbena linija",
        "Name[hsb]": "Přikazowa linka",
        "Name[hu]": "Parancssor",
        "Name[ia]": "Linea de commando",
        "Name[id]": "Baris Perintah",
        "Name[is]": "Skipanalína",
        "Name[it]": "Riga di comando",
        "Name[ja]": "コマンドライン",
        "Name[ka]": "ბრძანების ხაზი",
        "Name[kk]": "Команда жолы",
        "Name[km]": "បន្ទាត់​ពាក្យ​បញ្ជា",
        "Name[kn]": "ಆದೇಶ ತೆರೆ",
        "Name[ko]": "명령행",
        "Name[ku]": "Rêzika Fermanê",
        "Name[lt]": "Komandų eilutė",
        "Name[lv]": "Komandrinda",
        "Name[mai]": "कमांड लाइन",
        "Name[mk]": "Командна линија",
        "Name[ml]": "ആജ്ഞാസ്ഥാനം",
        "Name[mr]": "आदेश ओळ",
        "Name[nb]": "Kommandolinje",
        "Name[nds]": "Konsool",
        "Name[nl]": "Opdrachtregel",
        "Name[nn]": "Kommandolinje",
        "Name[oc]": "Linha de comanda",
        "Name[or]": "ନିର୍ଦ୍ଦେଶନାମା",
        "Name[pa]": "ਕਮਾਂਡ ਲਾਈਨ",
        "Name[pl]": "Wiersz poleceń",
        "Name[pt]": "Linha de Comandos",
        "Name[pt_BR]": "Linha de comando",
        "Name[ro]": "Linie de comandă",
        "Name[ru]": "Запуск программ",
        "Name[si]": "විධාන රේඛාව",
        "Name[sk]": "Príkazový riadok",
        "Name[sl]": "Ukazna vrstica",
        "Name[sr@ijekavian]": "командна линија",
        "Name[sr@ijekavianlatin]": "komandna linija",
        "Name[sr@latin]": "komandna linija",
        "Name[sr]": "командна линија",
        "Name[sv]": "Kommandorad",
        "Name[ta]": "கட்டளை இயக்கி",
        "Name[te]": "ఆదేశ వరుస",
        "Name[tg]": "Сатри фармонҳо",
        "Name[th]": "บรรทัดคำสั่ง",
        "Name[tr]": "Komut Satırı",
        "Name[ug]": "بۇيرۇق قۇرى",
        "Name[uk]": "Командний рядок",
        "Name[vi]": "Dòng lệnh",
        "Name[wa]": "Roye di cmande",
        "Name[x-test]": "xxCommand Linexx",
        "Name[zh_CN]": "命令行",
        "Name[zh_TW]": "命令列"
    },
    "X-Plasma-Runner-Unique-Results": true,
    "X-Plasma-Runner-Weak-Results": true
}
