{
    "KPlugin": {
        "Authors": [
            {
                "Email": "kde@privat.broulik.de",
                "Name": "Kai Uwe Broulik",
                "Name[ar]": "Kai Uwe Broulik",
                "Name[az]": "Kai Uwe Broulik",
                "Name[be]": "Kai Uwe Broulik",
                "Name[bg]": "Kai Uwe Broulik",
                "Name[ca@valencia]": "Kai Uwe Broulik",
                "Name[ca]": "Kai Uwe Broulik",
                "Name[cs]": "Kai Uwe Broulik",
                "Name[da]": "Kai Uwe Broulik",
                "Name[de]": "Kai Uwe Broulik",
                "Name[en_GB]": "Kai Uwe Broulik",
                "Name[es]": "Kai Uwe Broulik",
                "Name[et]": "Kai Uwe Broulik",
                "Name[eu]": "Kai Uwe Broulik",
                "Name[fi]": "Kai Uwe Broulik",
                "Name[fr]": "Kai Uwe Broulik",
                "Name[hu]": "Kai Uwe Broulik",
                "Name[ia]": "Kai Uwe Broulik",
                "Name[id]": "Kai Uwe Broulik",
                "Name[is]": "Kai Uwe Broulik",
                "Name[it]": "Kai Uwe Broulik",
                "Name[ja]": "Kai Uwe Broulik",
                "Name[ka]": "კაი უვე ბროულიკი",
                "Name[ko]": "Kai Uwe Broulik",
                "Name[lt]": "Kai Uwe Broulik",
                "Name[nl]": "Kai Uwe Broulik",
                "Name[nn]": "Kai Uwe Broulik",
                "Name[pl]": "Kai Uwe Broulik",
                "Name[pt]": "Kai Uwe Broulik",
                "Name[pt_BR]": "Kai Uwe Broulik",
                "Name[ro]": "Kai Uwe Broulik",
                "Name[ru]": "Kai Uwe Broulik",
                "Name[sk]": "Kai Uwe Broulik",
                "Name[sl]": "Kai Uwe Broulik",
                "Name[sv]": "Kai Uwe Broulik",
                "Name[ta]": "காய் ஊவே புரோலிக்",
                "Name[tr]": "Kai Uwe Broulik",
                "Name[uk]": "Kai Uwe Broulik",
                "Name[vi]": "Kai Uwe Broulik",
                "Name[x-test]": "xxKai Uwe Broulikxx",
                "Name[zh_CN]": "Kai Uwe Broulik"
            }
        ],
        "BugReportUrl": "https://bugs.kde.org/enter_bug.cgi?product=plasmashell&component=Global%20Menu",
        "Category": "Windows and Tasks",
        "Description": "Global menubar in your Plasma Desktop",
        "Description[ar]": "شريط القائمة الشاملة في سطح مكتب بلازما",
        "Description[az]": "Plasma iş masanızın qlobal menyu zolağı",
        "Description[be]": "Глабальная панэль меню для Plasma",
        "Description[bg]": "Глобална лента с менюта във вашия работен плот",
        "Description[ca@valencia]": "Barra de menús global en l'escriptori Plasma",
        "Description[ca]": "Barra de menús global a l'escriptori Plasma",
        "Description[da]": "Global menulinje på dit Plasma-skrivebord",
        "Description[de]": "Globale Menüleiste auf der Plasma-Arbeitsfläche",
        "Description[en_GB]": "Global menubar in your Plasma Desktop",
        "Description[es]": "Barra de menú global para el escritorio Plasma",
        "Description[et]": "Globaalne menüüriba Plasma töölaual",
        "Description[eu]": "Zure Plasma mahaigaineko menu-barra orokorra",
        "Description[fi]": "Työpöydänlaajuinen valikkorivi Plasma-työpöydälle",
        "Description[fr]": "Barre globale de menus de votre bureau Plasma",
        "Description[hu]": "Globális menüsáv a Plasma asztalon",
        "Description[ia]": "Barra de menu global in tu Scriptorio de Plasma",
        "Description[id]": "Bilah menu global di Plasma Desktop kamu",
        "Description[is]": "Víðvær valmyndastika á Plasma-skjáborðinu þínu",
        "Description[it]": "Barra dei menu globale nel tuo desktop Plasma",
        "Description[ja]": "Plasma デスクトップのグローバルメニューバー",
        "Description[ka]": "Plasma-ის სამუშაო მაგიდის გლობალური მენიუს ზოლი",
        "Description[ko]": "Plasma 데스크톱에 전역 메뉴 표시줄 표시",
        "Description[lt]": "Visuotinė meniu juosta jūsų Plasma darbalaukyje",
        "Description[nl]": "Globale menubalk in uw Plasma-bureaublad",
        "Description[nn]": "Global menylinje på Plasma-skrivebordet",
        "Description[pa]": "ਤੁਹਾਡੇ ਪਲਾਜ਼ਮਾ ਡੈਸਕਟਾਪ ਵਿੱਚ ਗਲੋਬਲ ਮੇਨੂ-ਪੱਟੀ",
        "Description[pl]": "Globalny pasek menu na pulpicie Plazmy",
        "Description[pt]": "Menu global na sua área de trabalho do Plasma",
        "Description[pt_BR]": "Barra de menu global na sua área de trabalho Plasma",
        "Description[ro]": "Bară de meniu globală în biroul Plasma",
        "Description[ru]": "Строка меню приложения на рабочем столе Plasma",
        "Description[sk]": "Globálna ponuka na vašej Ploche Plasma",
        "Description[sl]": "Splošna menijska vrstica na vašem namizju Plasma",
        "Description[sv]": "Global menyrad på Plasmaskrivbordet",
        "Description[ta]": "பணிமேடையிலேயே செயலிகளின் பட்டிகளை காட்டும்",
        "Description[tr]": "Plasma Masaüstü'nüzde global menü çubuğu",
        "Description[uk]": "Загальна панель меню у вашій стільниці Плазми",
        "Description[vi]": "Thanh trình đơn toàn cục ở bàn làm việc Plasma của bạn",
        "Description[x-test]": "xxGlobal menubar in your Plasma Desktopxx",
        "Description[zh_CN]": "Plasma 桌面上的全局菜单",
        "FormFactors": [
            "desktop"
        ],
        "Icon": "show-menu",
        "Id": "org.kde.plasma.appmenu",
        "License": "GPL-2.0+",
        "Name": "Global Menu",
        "Name[ar]": "القائمة العموميّة",
        "Name[az]": "Qlobal menyu",
        "Name[be]": "Глабальнае меню",
        "Name[bg]": "Глобално меню",
        "Name[ca@valencia]": "Menú global",
        "Name[ca]": "Menú global",
        "Name[cs]": "Globální nabídka",
        "Name[da]": "Global menu",
        "Name[de]": "Globales Menü",
        "Name[el]": "Καθολικό μενού",
        "Name[en_GB]": "Global Menu",
        "Name[es]": "Menú global",
        "Name[et]": "Globaalne menüü",
        "Name[eu]": "Menu orokorra",
        "Name[fi]": "Yleisvalikko",
        "Name[fr]": "Menu global",
        "Name[gl]": "Menú global",
        "Name[he]": "תפריט גלובלי",
        "Name[hi]": "वैश्विक मेन्यू",
        "Name[hsb]": "Globalny meni",
        "Name[hu]": "Globális menü",
        "Name[ia]": "Menu  Global",
        "Name[id]": "Menu Global",
        "Name[is]": "Almenn valmynd",
        "Name[it]": "Menu globale",
        "Name[ja]": "グローバルメニュー",
        "Name[ka]": "გლობალური მენიუ",
        "Name[ko]": "전역 메뉴",
        "Name[lt]": "Visuotinis meniu",
        "Name[lv]": "Globālā izvēlne",
        "Name[ml]": "പൊതു മെനു",
        "Name[nl]": "Globaal menu",
        "Name[nn]": "Global meny",
        "Name[pa]": "ਗਲੋਬਲ ਮੇਨੂ",
        "Name[pl]": "Menu globalne",
        "Name[pt]": "Menu Global",
        "Name[pt_BR]": "Menu global",
        "Name[ro]": "Meniu global",
        "Name[ru]": "Меню приложения",
        "Name[sk]": "Globálna ponuka",
        "Name[sl]": "Splošni meni",
        "Name[sr@ijekavian]": "Глобални мени",
        "Name[sr@ijekavianlatin]": "Globalni meni",
        "Name[sr@latin]": "Globalni meni",
        "Name[sr]": "Глобални мени",
        "Name[sv]": "Global meny",
        "Name[ta]": "பொதுவான பட்டி",
        "Name[tg]": "Феҳристи умумӣ",
        "Name[tr]": "Genel Menü",
        "Name[uk]": "Загальне меню",
        "Name[vi]": "Trình đơn toàn cục",
        "Name[x-test]": "xxGlobal Menuxx",
        "Name[zh_CN]": "全局菜单",
        "Name[zh_TW]": "全域選單",
        "ServiceTypes": [
            "Plasma/Applet"
        ],
        "Version": "2.0",
        "Website": "https://kde.org/plasma-desktop"
    },
    "X-Plasma-API": "declarativeappletscript",
    "X-Plasma-MainScript": "ui/main.qml"
}
