{
    "KPlugin": {
        "Description": "Weather forecast by wetter.com",
        "Description[ar]": "نشرة الطقس الجوية من wetter.com",
        "Description[az]": "Wetter.com tərəfindən hava məlumatı",
        "Description[be]": "Прагноз надвор'я ад wetter.com",
        "Description[bg]": "Прогноза за времето от wetter.com",
        "Description[ca@valencia]": "Previsió meteorològica per wetter.com",
        "Description[ca]": "Previsió meteorològica per wetter.com",
        "Description[cs]": "Předpověď počasí od wetter.com",
        "Description[da]": "Vejrudsigt fra wetter.com",
        "Description[de]": "Wettervorhersage von wetter.com",
        "Description[en_GB]": "Weather forecast by wetter.com",
        "Description[es]": "Previsión meteorológica de wetter.com",
        "Description[et]": "Wetter.com-i ilmateade",
        "Description[eu]": "wetter.com-eren eguraldi-iragarpena",
        "Description[fi]": "wetter.comin sääennuste",
        "Description[fr]": "Prévisions météorologiques par le site « wetter.com »",
        "Description[hu]": "Időjárás-előrejelzés a wetter.com-ról",
        "Description[ia]": "Prevision Meteorologic per wetter.com",
        "Description[id]": "Prakiraan cuaca berdasarkan wetter.com",
        "Description[is]": "Veðurspá frá wetter.com",
        "Description[it]": "Previsioni del tempo di wetter.com",
        "Description[ja]": "wetter.com による天気予報",
        "Description[ka]": "ამინდის პროგნოზი wetter.com-დან",
        "Description[ko]": "wetter.com 일기예보",
        "Description[lt]": "Orų prognozės iš wetter.com",
        "Description[nl]": "Weersvoorspelling door wetter.com",
        "Description[nn]": "Vêrmelding av wetter.com",
        "Description[pa]": "wetter.com ਤੋਂ ਮੌਸਮ ਭਵਿੱਖਬਾਣੀ",
        "Description[pl]": "Prognoza pogody z wetter.com",
        "Description[pt]": "Previsão meteorológica da wetter.com",
        "Description[pt_BR]": "Previsão do tempo por wetter.com",
        "Description[ro]": "Prognoza vremii de la wetter.com",
        "Description[ru]": "Прогноз погоды с wetter.com",
        "Description[sk]": "Predpoveď počasia z wetter.com",
        "Description[sl]": "Vremenska napoved iz wetter.com",
        "Description[sv]": "Väderprognos av wetter.com",
        "Description[ta]": "wetter.com-இன் வானிலை அறிக்கை",
        "Description[tr]": "wetter.com'dan hava tahmini",
        "Description[uk]": "Прогноз погоди з wetter.com",
        "Description[vi]": "Dự báo thời tiết của wetter.com",
        "Description[x-test]": "xxWeather forecast by wetter.comxx",
        "Description[zh_CN]": "wetter.com 网站提供的天气预报",
        "Description[zh_TW]": "wetter.com 的氣象預報",
        "Icon": "noneyet",
        "Id": "wettercom",
        "Name": "wetter.com",
        "Name[ar]": "wetter.com",
        "Name[az]": "wetter.com",
        "Name[be]": "wetter.com",
        "Name[bg]": "wetter.com",
        "Name[bn]": "wetter.com",
        "Name[bs]": "wetter.com",
        "Name[ca@valencia]": "wetter.com",
        "Name[ca]": "wetter.com",
        "Name[cs]": "wetter.com",
        "Name[da]": "wetter.com",
        "Name[de]": "wetter.com",
        "Name[el]": "wetter.com",
        "Name[en_GB]": "wetter.com",
        "Name[eo]": "wetter.com",
        "Name[es]": "wetter.com",
        "Name[et]": "wetter.com",
        "Name[eu]": "wetter.com",
        "Name[fi]": "wetter.com",
        "Name[fr]": "wetter.com",
        "Name[fy]": "wetter.com",
        "Name[ga]": "wetter.com",
        "Name[gl]": "wetter.com",
        "Name[gu]": "wetter.com",
        "Name[he]": "wetter.com",
        "Name[hi]": "wetter.com",
        "Name[hr]": "wetter.com",
        "Name[hu]": "wetter.com",
        "Name[ia]": "wetter.com",
        "Name[id]": "wetter.com",
        "Name[is]": "wetter.com",
        "Name[it]": "wetter.com",
        "Name[ja]": "wetter.com",
        "Name[ka]": "wetter.com",
        "Name[kk]": "wetter.com",
        "Name[km]": "wetter.com",
        "Name[kn]": "wetter.com",
        "Name[ko]": "wetter.com",
        "Name[lt]": "wetter.com",
        "Name[lv]": "wetter.com",
        "Name[mk]": "wetter.com",
        "Name[ml]": "വെറ്റര്‍.കൊം",
        "Name[mr]": "wetter.com",
        "Name[nb]": "wetter.com",
        "Name[nds]": "wetter.com",
        "Name[nl]": "wetter.com",
        "Name[nn]": "wetter.com",
        "Name[pa]": "wetter.com",
        "Name[pl]": "wetter.com",
        "Name[pt]": "wetter.com",
        "Name[pt_BR]": "wetter.com",
        "Name[ro]": "wetter.com",
        "Name[ru]": "wetter.com",
        "Name[si]": "wetter.com",
        "Name[sk]": "wetter.com",
        "Name[sl]": "wetter.com",
        "Name[sr@ijekavian]": "wetter.com",
        "Name[sr@ijekavianlatin]": "wetter.com",
        "Name[sr@latin]": "wetter.com",
        "Name[sr]": "wetter.com",
        "Name[sv]": "wetter.com",
        "Name[ta]": "wetter.com",
        "Name[tg]": "wetter.com",
        "Name[th]": "wetter.com",
        "Name[tr]": "wetter.com",
        "Name[ug]": "wetter.com",
        "Name[uk]": "wetter.com",
        "Name[vi]": "wetter.com",
        "Name[wa]": "wetter.com",
        "Name[x-test]": "xxwetter.comxx",
        "Name[zh_CN]": "wetter.com",
        "Name[zh_TW]": "wetter.com"
    },
    "X-KDE-ParentApp": "weatherengine"
}
